{
  "routes": [
    {
      "method": "GET",
      "path": "/visits",
      "handler": "Visit.find",
      "config": {
        "policies": []
      }
    },
    {
      "method": "GET",
      "path": "/visits/count",
      "handler": "Visit.count",
      "config": {
        "policies": []
      }
    },
    {
      "method": "GET",
      "path": "/visits/:id",
      "handler": "Visit.findOne",
      "config": {
        "policies": []
      }
    },
    {
      "method": "POST",
      "path": "/visits",
      "handler": "Visit.create",
      "config": {
        "policies": []
      }
    },
    {
      "method": "PUT",
      "path": "/visits/:id",
      "handler": "Visit.update",
      "config": {
        "policies": []
      }
    },
    {
      "method": "DELETE",
      "path": "/visits/:id",
      "handler": "Visit.destroy",
      "config": {
        "policies": []
      }
    }
  ]
}
