<svg
  viewBox="0 0 16 16"
  xmlns="http://www.w3.org/2000/svg"
>
  <g clipPath="url(#clip0)">
    <path d="M8.0326 0.908416L7.61358 1.16582C6.22732 2.01478 5.19135 2.86402 4.31831 3.85618C3.01464 5.33772 3.01482 7.52925 4.21878 9.01519L1.97634 11.5636L0.975359 10.6828L0.0945547 11.6838L3.0975 14.3262L3.9783 13.3252L2.97732 12.4444L5.21976 9.896C6.84678 10.9012 9.02053 10.6225 10.3242 9.14101C11.0992 8.26028 11.878 6.99685 12.5678 5.54263L12.7833 5.08879L8.0326 0.908416ZM7.94066 2.60355L11.1049 5.38788C10.8917 5.80718 10.6718 6.20687 10.4518 6.58928L6.81743 3.39121C7.16787 3.1276 7.5369 2.86699 7.94066 2.60355ZM5.78413 4.258L9.73429 7.73391C9.59476 7.92979 9.45666 8.10855 9.32321 8.2602C8.34535 9.37148 6.67092 9.47842 5.55964 8.50056C4.44837 7.5227 4.34143 5.84827 5.31929 4.73699C5.46411 4.57241 5.62171 4.41406 5.78413 4.258Z" />
    <path d="M14.0001 6.02393C14.0001 6.02393 12.6667 7.43826 12.6667 8.33343C12.6667 9.07626 13.2572 9.66676 14.0001 9.66676C14.7429 9.66676 15.3334 9.07626 15.3334 8.33343C15.3334 7.43826 14.0001 6.02393 14.0001 6.02393ZM14 9C13.8859 8.99974 13.2695 8.89426 13.2695 8.33343C13.2695 7.86593 13.542 7.544 14 7C14.458 7.5435 14.7295 7.86476 14.7295 8.33343C14.7295 8.89426 14.1141 9.00026 14 9Z" />
  </g>
  <defs>
    <clipPath id="clip0">
      <rect width="16" height="16" />
    </clipPath>
  </defs>
</svg>