<svg
  width="16"
  height="16"
  viewBox="0 0 16 16"
  fill="none"
  xmlns="http://www.w3.org/2000/svg"
>
  <path d="M8 1.33331C7.13067 1.33331 6.39773 1.89131 6.1224 2.66665H3.33333C2.59667 2.66665 2 3.26331 2 3.99998V13.3333C2 14.07 2.59667 14.6666 3.33333 14.6666H12.6667C13.4033 14.6666 14 14.07 14 13.3333V3.99998C14 3.26331 13.4033 2.66665 12.6667 2.66665H9.8776C9.60227 1.89131 8.86933 1.33331 8 1.33331ZM8 2.66665C8.368 2.66665 8.66667 2.96531 8.66667 3.33331C8.66667 3.70131 8.368 3.99998 8 3.99998H12.6667V13.3333H3.33333V3.99998H8C7.632 3.99998 7.33333 3.70131 7.33333 3.33331C7.33333 2.96531 7.632 2.66665 8 2.66665ZM7.33333 5.99998V7.99998H5.33333V9.33331H7.33333V11.3333H8.66667V9.33331H10.6667V7.99998H8.66667V5.99998H7.33333Z" />
</svg>
