  <svg
    width="24"
    height="24"
    viewBox="0 0 24 24"
    xmlns="http://www.w3.org/2000/svg"
  >
    <path
      d="M10 2C8.70684 2 7.60486 2.84267 7.1875 4H2V6H7.1875C7.60486 7.15733 8.70684 8 10 8C11.645 8 13 6.64501 13 5C13 3.35499 11.645 2 10 2ZM10 4C10.5641 4 11 4.43587 11 5C11 5.56413 10.5641 6 10 6C9.43587 6 9 5.56413 9 5C9 4.43587 9.43587 4 10 4ZM15 4V6H22V4H15ZM15 9C13.7068 9 12.6049 9.84267 12.1875 11H2V13H12.1875C12.6049 14.1573 13.7068 15 15 15C16.645 15 18 13.645 18 12C18 10.355 16.645 9 15 9ZM15 11C15.5641 11 16 11.4359 16 12C16 12.5641 15.5641 13 15 13C14.4359 13 14 12.5641 14 12C14 11.4359 14.4359 11 15 11ZM20 11V13H22V11H20ZM7 16C5.70684 16 4.60486 16.8427 4.1875 18H2V20H4.1875C4.60486 21.1573 5.70684 22 7 22C8.64501 22 10 20.645 10 19C10 17.355 8.64501 16 7 16ZM7 18C7.56413 18 8 18.4359 8 19C8 19.5641 7.56413 20 7 20C6.43587 20 6 19.5641 6 19C6 18.4359 6.43587 18 7 18ZM12 18V20H22V18H12Z"
    />
  </svg>
