 <svg width="24" height="24" viewBox="0 0 32 32" fill="none" xmlns="http://www.w3.org/2000/svg">
    <path d="M23.4446 10.2928C23.4039 10.4144 23.3836 10.4955 23.3632 10.5563C23.1395 11.2656 23.2616 11.9343 23.709 12.5018C24.4615 13.4948 25.4784 14.1027 26.719 14.2649C27.9189 14.427 29.0172 14.123 30.0544 13.5353C30.4815 13.2921 30.8679 12.9679 31.2747 12.6842C31.3764 12.6031 31.4781 12.522 31.5798 12.441C32.1696 13.9406 32.1289 18.3585 31.5188 19.6758C31.4374 19.5745 31.3764 19.4934 31.3154 19.3921C30.2375 17.9329 28.8952 16.7778 27.3088 15.8861C26.1089 15.2174 24.8072 14.8526 23.4243 14.9336C23.3022 14.9336 23.1802 14.9336 23.0785 14.9539C22.7124 15.0755 22.4277 14.9539 22.1226 14.731C21.1667 14.0622 20.2719 13.3327 19.4787 12.4815C18.9296 11.8735 18.4618 11.2048 18.1364 10.4549C17.5669 9.17821 17.4652 7.88121 17.994 6.58422C18.9092 4.27394 20.4753 2.51083 22.7938 1.53808C25.3564 0.464008 27.7156 0.990913 29.7494 2.87561C30.3595 3.44305 30.8476 4.11181 31.1933 4.88191C31.8442 6.36129 31.7831 7.80015 30.99 9.21874C30.4002 10.2523 29.5663 11.0426 28.5291 11.6101C28.041 11.8938 27.5122 12.0559 26.9224 12.0357C26.6173 12.0154 26.3529 11.9343 26.1292 11.7114C25.9462 11.529 25.9055 11.3669 26.0682 11.1642C26.2919 10.9008 26.5563 10.6373 26.841 10.4347C28.0206 9.54299 29.2002 8.69184 30.3798 7.82042C30.7866 7.51643 30.8273 7.4759 30.6035 7.03006C29.79 5.36828 28.6308 4.03075 26.8817 3.30119C24.2174 2.18658 21.3905 3.44305 20.0482 5.46961C18.6855 7.55696 20.0075 9.54299 21.8582 10.1104C22.2243 10.2118 22.6107 10.232 22.9972 10.2726C23.1192 10.3131 23.2616 10.2928 23.4446 10.2928Z" />
    <path d="M8.55718 21.6615C8.57752 21.5805 8.57752 21.5399 8.59786 21.4791C8.90293 20.6685 8.74022 19.939 8.1911 19.2905C7.09285 17.9935 5.68953 17.4463 4.00149 17.6692C2.74054 17.8313 1.68296 18.419 0.727081 19.2297C0.625391 19.3107 0.544039 19.3918 0.44235 19.4729C-0.14745 18.4798 -0.14745 14.1633 0.44235 12.2178C0.523701 12.3394 0.605053 12.4204 0.686405 12.5218C1.76431 13.9606 3.08628 15.1158 4.6523 16.0074C6.07595 16.7978 7.62164 17.1626 9.24867 16.9194C9.35036 16.8991 9.47239 16.9397 9.57408 17.0005C10.8147 17.8111 11.9536 18.723 12.8688 19.8782C13.2756 20.3848 13.601 20.9117 13.8654 21.4994C14.4145 22.7559 14.4959 24.0326 14.0077 25.2891C13.0925 27.6196 11.5062 29.403 9.18766 30.3757C5.68953 31.8551 2.17107 30.0312 0.767757 26.9914C0.422012 26.2821 0.299984 25.512 0.360998 24.7216C0.401674 24.1339 0.544039 23.5868 0.808432 23.0801C1.43891 21.8237 2.39479 20.8712 3.6354 20.2227C4.14385 19.9592 4.67264 19.8174 5.26244 19.9187C5.34379 19.939 5.44548 19.9592 5.52683 19.9998C6.09629 20.2227 6.15731 20.5469 5.75055 20.9725C5.54717 21.1752 5.32345 21.3778 5.0794 21.5399C3.8998 22.4114 2.7202 23.2828 1.5406 24.1542C1.23553 24.3771 1.19485 24.4379 1.33722 24.7622C2.2931 26.809 3.71676 28.3289 5.9946 28.8964C6.88947 29.1193 7.78434 29.0787 8.67921 28.8153C9.81813 28.491 10.774 27.8425 11.5672 26.9509C11.8723 26.6063 12.1163 26.2213 12.279 25.7755C12.6858 24.6608 12.5027 23.6678 11.7096 22.7964C10.9774 22.0061 10.0622 21.621 8.98428 21.6413C8.86225 21.6615 8.71988 21.6615 8.55718 21.6615Z" />
    <path d="M19.4788 31.6115C17.0789 32.1384 14.74 32.1384 12.3198 31.5507C12.4825 31.4291 12.5842 31.3481 12.6859 31.267C14.2926 30.0105 15.5942 28.4906 16.4281 26.6059C16.9772 25.39 17.1603 24.093 16.9772 22.7555C16.9569 22.6339 16.9975 22.492 17.0586 22.4109C17.9128 21.0937 18.889 19.8777 20.1703 18.9253C21.0245 18.2768 21.9803 17.8309 23.0582 17.7093C23.8718 17.608 24.6649 17.7093 25.4174 18.0336C27.7766 19.0468 29.5867 20.6681 30.4816 23.1202C31.7629 26.6464 29.7901 29.97 26.9021 31.2467C25.4988 31.875 24.0955 31.7534 22.7532 30.9833C21.7159 30.3956 20.9228 29.5647 20.3736 28.5109C20.1906 28.1664 20.0686 27.7611 19.9669 27.3557C19.8855 26.991 19.9465 26.6262 20.1499 26.2817C20.3533 25.9371 20.577 25.8966 20.8618 26.1601C21.1058 26.383 21.3295 26.6262 21.5329 26.8896C22.4278 28.065 23.282 29.2607 24.1768 30.4564C24.4209 30.7806 24.4819 30.8212 24.8073 30.659C26.7598 29.7471 28.2851 28.3893 28.8749 26.2614C29.4647 24.1335 28.8342 22.2691 27.3292 20.6884C26.7801 20.1209 26.1293 19.6953 25.3564 19.513C24.5633 19.3306 23.8311 19.4927 23.1803 19.9588C22.2244 20.6478 21.7159 21.6003 21.6753 22.7757C21.6753 22.9581 21.6753 23.1608 21.6753 23.3634C21.5532 23.3432 21.4719 23.3432 21.3905 23.3026C20.699 23.0797 20.0686 23.2216 19.4991 23.6269C18.4822 24.3767 17.8721 25.39 17.689 26.6667C17.4857 28.0448 17.9128 29.281 18.6449 30.4361C18.8686 30.8414 19.1737 31.1859 19.4788 31.6115Z" />
    <path d="M10.3673 8.5904C10.591 8.63093 10.7741 8.69172 10.9571 8.71199C11.5876 8.79305 12.1774 8.63093 12.6655 8.22562C13.8247 7.25287 14.4349 5.9964 14.3739 4.47648C14.3332 3.05789 13.7027 1.84196 12.8282 0.767882C12.7265 0.646288 12.6451 0.54496 12.5028 0.382836C14.923 -0.14407 17.2619 -0.123804 19.7024 0.423367C19.5397 0.54496 19.438 0.626023 19.3567 0.707085C17.75 1.96355 16.4687 3.4632 15.6145 5.32764C15.0654 6.54357 14.8416 7.84057 15.0247 9.15783C15.045 9.36049 15.0247 9.50235 14.9027 9.66447C14.2518 10.6372 13.5197 11.5694 12.6655 12.3801C12.0553 12.9475 11.3842 13.4339 10.6317 13.7987C9.28939 14.4269 7.90641 14.5282 6.5641 13.9608C4.30659 13.0083 2.55753 11.4478 1.62199 9.15783C0.218671 5.71268 1.98807 2.20674 5.03876 0.808413C6.60478 0.0991173 8.15046 0.281508 9.57412 1.23399C10.3876 1.78116 11.0384 2.49046 11.5469 3.34161C11.8113 3.78745 11.9943 4.25356 12.0553 4.78047C12.096 5.14525 12.035 5.48976 11.8316 5.79375C11.6282 6.07747 11.4452 6.118 11.2012 5.89507C10.9368 5.67215 10.713 5.4087 10.5097 5.14525C9.61479 3.96984 8.7606 2.77417 7.86573 1.57851C7.62168 1.25426 7.54033 1.21372 7.19458 1.37585C5.2218 2.30807 3.71679 3.68613 3.12699 5.87481C2.45584 8.34721 3.73713 10.8804 5.56755 12.0355C7.70303 13.4136 9.69615 11.9747 10.2249 10.1914C10.3266 9.84686 10.347 9.46182 10.3876 9.09704C10.3876 8.89438 10.3673 8.75252 10.3673 8.5904Z" />
    <path d="M16.0822 12.0159C17.0991 13.6574 18.4414 14.9138 19.9668 16.0487C18.3397 17.062 17.0788 18.3995 15.9398 19.9397C14.9229 18.2982 13.601 17.0417 12.0553 15.9069C13.6823 14.9138 14.9433 13.5763 16.0822 12.0159Z" />
    <path d="M26.963 6.52317C26.3529 6.98928 25.7631 7.43512 25.153 7.8607C24.8479 8.08362 24.4818 8.24575 24.0954 8.28628C23.831 8.30654 23.5463 8.30654 23.3022 8.22548C22.8751 8.08362 22.7328 7.65804 22.9158 7.273C22.9565 7.19194 22.9971 7.11087 23.0582 7.05008C23.7293 6.25972 24.5428 5.77334 25.6004 5.81387C26.1495 5.81387 26.597 6.0368 26.963 6.52317Z" />
    <path d="M5.05908 25.4307C5.68956 24.9646 6.2997 24.4985 6.93017 24.0526C7.37761 23.7486 7.88605 23.5865 8.45552 23.6676C8.61822 23.6878 8.80126 23.7689 8.94363 23.8702C9.18768 24.0526 9.2487 24.3363 9.12667 24.6201C9.10633 24.6606 9.08599 24.7214 9.06565 24.7619C8.5572 25.6941 7.11321 26.3426 6.07598 26.0995C5.66922 26.0184 5.32347 25.8157 5.05908 25.4307Z" />
    <path d="M25.4783 26.8901C25.397 26.8091 25.336 26.7483 25.2749 26.6672C24.9495 26.2416 24.6038 25.7958 24.2784 25.3499C23.9937 24.9649 23.7699 24.519 23.7089 24.0327C23.6886 23.7895 23.7089 23.526 23.7699 23.2828C23.892 22.8775 24.3191 22.7357 24.7055 22.9383C25.1122 23.1612 25.397 23.4855 25.641 23.8705C26.0274 24.4988 26.2512 25.1878 26.0681 25.9376C26.0071 26.3227 25.8241 26.6469 25.4783 26.8901Z" />
    <path d="M6.5437 5.08432C6.58438 5.14512 6.64539 5.18565 6.68607 5.24644C7.03181 5.71255 7.39789 6.17866 7.74364 6.64477C8.04871 7.05008 8.25209 7.49592 8.29276 8.00256C8.3131 8.18495 8.29276 8.36734 8.25209 8.52947C8.1504 9.01584 7.68262 9.2185 7.25553 8.97531C6.80809 8.73212 6.50302 8.34708 6.25897 7.90124C5.91322 7.29327 5.75052 6.6245 5.93356 5.91521C6.03525 5.57069 6.21829 5.30724 6.5437 5.08432Z" />
  </svg>