<svg
  viewBox="0 0 20 22"
  xmlns="http://www.w3.org/2000/svg"
>
  <path d="M2 0C0.9 0 0 0.9 0 2V18C0 19.1 0.9 20 2 20H7.51953C7.04953 19.4 6.68945 18.73 6.43945 18H2V2H14V8.0293L16 8.43945V2C16 0.9 15.1 0 14 0H2ZM4 5V7H12V5H4ZM4 9V11H7.51953C8.11953 10.18 8.8893 9.5 9.7793 9H4ZM13.5 10C12.201 10 10.9936 10.4545 10.0508 11.2246C8.79509 12.228 8 13.7783 8 15.5C8 15.706 8.01221 15.9125 8.03711 16.1152C8.34424 18.8593 10.6786 21 13.5 21C14.6545 21 15.7267 20.6398 16.6133 20.0273L18.543 21.957L19.957 20.543L18.0273 18.6133C18.6398 17.7267 19 16.6545 19 15.5C19 12.4718 16.5282 10 13.5 10ZM14 12.0488C15.7075 12.289 17 13.7197 17 15.5C17 17.4518 15.4518 19 13.5 19C11.7226 19 10.2914 17.6981 10.0469 16H14V12.0488ZM4 13V15H6.0293C6.0593 14.3 6.19945 13.63 6.43945 13H4Z" />
</svg>