{
  "routes": [
    {
      "method": "GET",
      "path": "/patients",
      "handler": "Patient.find",
      "config": {
        "policies": []
      }
    },
    {
      "method": "GET",
      "path": "/patients/count",
      "handler": "Patient.count",
      "config": {
        "policies": []
      }
    },
    {
      "method": "GET",
      "path": "/patients/:id",
      "handler": "Patient.findOne",
      "config": {
        "policies": []
      }
    },
    {
      "method": "POST",
      "path": "/patients",
      "handler": "Patient.create",
      "config": {
        "policies": []
      }
    },
    {
      "method": "PUT",
      "path": "/patients/:id",
      "handler": "Patient.update",
      "config": {
        "policies": []
      }
    },
    {
      "method": "DELETE",
      "path": "/patients/:id",
      "handler": "Patient.destroy",
      "config": {
        "policies": []
      }
    }
  ]
}
