{
  "connection": "default",
  "collectionName": "patients",
  "info": {
    "name": "patient",
    "description": ""
  },
  "options": {
    "increments": true,
    "timestamps": true,
    "comment": ""
  },
  "attributes": {
    "name": {
      "type": "string"
    },
    "comment": {
      "type": "string"
    },
    "birthDate": {
      "type": "date"
    },
    "phone": {
      "type": "string"
    },
    "visits": {
      "collection": "visit",
      "via": "patient"
    }
  }
}