{
  "defaultConnection": "default",
  "connections": {
    "default": {
      "connector": "strapi-hook-bookshelf",
      "settings": {
        "client": "postgres",
        "host": "127.0.0.1",
        "port": 5432,
        "database": "arm",
        "username": "postgres",
        "password": "postgres"
      },
      "options": {}
    }
  }
}
